<svg width="388" height="250" viewBox="0 0 388 250" fill="none" xmlns="http://www.w3.org/2000/svg">
<g clip-path="url(#clip0_517_10030)">
<path d="M256.09 62.57C256.334 63.6962 256.438 64.8483 256.4 66C256.4 80.88 238.31 83.49 225.8 83.5C177.14 83.5 140.8 53.34 140.8 44.12C140.763 43.4458 140.837 42.7701 141.02 42.12L137.36 51.19C136.365 53.5053 135.854 55.9999 135.86 58.52C135.86 76.63 176.86 103.98 223.66 103.94C244.36 103.94 260.1 96.14 260.08 82.12C260.08 81.05 260.08 80.18 258.35 71.99L256.09 62.57Z" fill="black"/>
<path d="M225.8 83.49C238.31 83.49 256.42 80.87 256.4 65.99C256.437 64.8416 256.333 63.693 256.09 62.57L248.61 30.21C246.88 23.09 245.36 19.86 232.85 13.62C223.14 8.66999 202 0.489994 195.75 0.499994C189.93 0.499994 188.21 8.04999 181.31 8.05999C174.63 8.05999 169.66 2.45999 163.41 2.46999C157.41 2.46999 153.49 6.57999 150.48 14.99C150.48 14.99 142.09 38.71 141.02 42.16C140.837 42.8101 140.763 43.4858 140.8 44.16C140.8 53.38 177.14 83.58 225.8 83.54M258.35 72C260.08 80.19 260.08 81.06 260.08 82.13C260.08 96.13 244.36 103.93 223.66 103.95C176.87 103.95 135.88 76.64 135.86 58.53C135.854 56.0099 136.365 53.5153 137.36 51.2C120.54 52.07 98.77 55.11 98.78 74.3C98.78 105.78 173.46 144.53 232.54 144.48C277.82 144.48 289.23 123.94 289.22 107.77C289.22 95.04 278.22 80.61 258.35 72Z" fill="#767676"/>
<path d="M354.56 231.52C354.56 243.4 361.71 249.18 374.75 249.18C378.765 249.081 382.755 248.517 386.64 247.5V233.72C384.158 234.512 381.565 234.903 378.96 234.88C373.59 234.88 371.6 233.2 371.6 228.15V207H387.16V192.8H371.6V174.8L354.6 178.48V192.78H343.31V207H354.56V231.52ZM301.62 231.83C301.62 228.15 305.3 226.36 310.87 226.36C314.275 226.38 317.665 226.803 320.97 227.62V234.78C317.711 236.554 314.05 237.46 310.34 237.41C304.88 237.41 301.62 235.3 301.62 231.83ZM306.81 249.39C312.81 249.39 317.65 248.13 322.17 245.08V248.45H339V212.8C339 199.23 329.85 191.8 314.6 191.8C306.08 191.8 297.66 193.8 288.6 197.9L294.7 210.42C301.22 207.68 306.7 206 311.53 206C318.53 206 322.15 208.73 322.15 214.31V217C318.028 215.936 313.787 215.408 309.53 215.43C295.23 215.43 286.6 221.43 286.6 232.15C286.6 241.93 294.38 249.39 306.79 249.39M214.35 248.45H232.44V219.63H262.73V248.45H280.82V174.83H262.75V203.12H232.46V174.83H214.37L214.35 248.45ZM145.42 220.58C145.42 212.58 151.73 206.49 160.04 206.49C164.369 206.395 168.575 207.933 171.82 210.8V230.25C170.245 231.728 168.394 232.879 166.372 233.638C164.35 234.396 162.198 234.747 160.04 234.67C151.84 234.67 145.42 228.57 145.42 220.58ZM172.03 248.45H188.86V171.15L171.86 174.83V195.76C167.533 193.305 162.635 192.036 157.66 192.08C141.47 192.08 128.74 204.59 128.74 220.58C128.695 224.331 129.397 228.054 130.806 231.532C132.215 235.009 134.302 238.171 136.945 240.833C139.589 243.495 142.736 245.604 146.203 247.037C149.67 248.471 153.388 249.199 157.14 249.18C162.505 249.206 167.737 247.513 172.07 244.35L172.03 248.45ZM94.8401 205.75C100.2 205.75 104.72 209.22 106.51 214.58H83.2901C84.9701 209.01 89.1801 205.75 94.8601 205.75M66.1501 220.68C66.1501 236.88 79.4001 249.5 96.4401 249.5C105.8 249.5 112.63 246.98 119.68 241.09L108.42 231.09C105.8 233.82 101.9 235.29 97.2801 235.29C94.3749 235.372 91.513 234.572 89.0711 232.996C86.6292 231.42 84.7219 229.141 83.6001 226.46H123.25V222.25C123.25 204.58 111.37 191.86 95.1701 191.86C91.3619 191.803 87.5807 192.507 84.0487 193.932C80.5168 195.357 77.3054 197.474 74.6035 200.158C71.9016 202.843 69.7636 206.04 68.3153 209.563C66.867 213.085 66.1376 216.862 66.1701 220.67M36.8101 190.29C42.8101 190.29 46.1701 194.08 46.1701 198.6C46.1701 203.12 42.8001 206.91 36.8101 206.91H18.9301V190.29H36.8101ZM0.810059 248.45H18.9301V221.63H32.7001L46.5901 248.45H66.7801L50.5801 219C54.6989 217.327 58.2229 214.46 60.6983 210.767C63.1738 207.075 64.4874 202.726 64.4701 198.28C64.4701 185.03 54.0501 174.83 38.4701 174.83H0.840059L0.810059 248.45Z" fill="black"/>
</g>
<defs>
<clipPath id="clip0_517_10030">
<rect width="388" height="250" fill="white"/>
</clipPath>
</defs>
</svg>